<?xml version="1.0" encoding="UTF-8" standalone="no"?>
<svg
   xmlns:dc="http://purl.org/dc/elements/1.1/"
   xmlns:cc="http://creativecommons.org/ns#"
   xmlns:rdf="http://www.w3.org/1999/02/22-rdf-syntax-ns#"
   xmlns:svg="http://www.w3.org/2000/svg"
   xmlns="http://www.w3.org/2000/svg"
   xmlns:sodipodi="http://sodipodi.sourceforge.net/DTD/sodipodi-0.dtd"
   xmlns:inkscape="http://www.inkscape.org/namespaces/inkscape"
   id="Слой_1"
   data-name="Слой 1"
   viewBox="0 0 24 24"
   version="1.1"
   sodipodi:docname="group_remove.svg"
   inkscape:version="1.0.2 (1.0.2+r75+1)">
  <rect
     class="cls-3"
     x="0"
     y="0"
     width="3"
     height="3"
     id="rect29"
     style="fill:#F4EFF3;stroke-width:1" />
  <rect
     class="cls-3"
     x="21"
     y="0"
     width="3"
     height="3"
     id="rect33"
     style="fill:#F4EFF3;stroke-width:1" />
  <rect
     class="cls-3"
     x="21"
     y="21"
     width="3"
     height="3"
     id="rect1038"
     style="fill:#F4EFF3;stroke-width:1" />
  <rect
     class="cls-3"
     x="0"
     y="21"
     width="3"
     height="3"
     id="rect1040"
     style="fill:#F4EFF3;stroke-width:1" />
  <path
     style="fill:none;stroke:#F4EFF3;stroke-width:0.999997px;stroke-linecap:butt;stroke-linejoin:miter;stroke-opacity:1"
     d="M 3,1.5 H 6"
     id="path1060"
     inkscape:transform-center-x="-1.0161129"
     inkscape:transform-center-y="-1.2847622" />
  <path
     style="fill:none;stroke:#F4EFF3;stroke-width:0.999997px;stroke-linecap:butt;stroke-linejoin:miter;stroke-opacity:1"
     d="m 8,1.5 h 3"
     id="path1062"
     inkscape:transform-center-x="-1.0161129"
     inkscape:transform-center-y="-1.2847622" />
  <path
     style="fill:none;stroke:#F4EFF3;stroke-width:0.999997px;stroke-linecap:butt;stroke-linejoin:miter;stroke-opacity:1"
     d="m 13,1.5 h 3"
     id="path1064"
     inkscape:transform-center-x="-1.0161129"
     inkscape:transform-center-y="-1.2847622" />
  <path
     style="fill:none;stroke:#F4EFF3;stroke-width:0.999997px;stroke-linecap:butt;stroke-linejoin:miter;stroke-opacity:1"
     d="m 18,1.5 h 3"
     id="path1066"
     inkscape:transform-center-x="-1.0161129"
     inkscape:transform-center-y="-1.2847622" />
  <path
     style="fill:none;stroke:#F4EFF3;stroke-width:0.999997px;stroke-linecap:butt;stroke-linejoin:miter;stroke-opacity:1"
     d="M 3,22.5 H 6"
     id="path1068"
     inkscape:transform-center-x="-1.0161129"
     inkscape:transform-center-y="-1.2847622" />
  <path
     style="fill:none;stroke:#F4EFF3;stroke-width:0.999997px;stroke-linecap:butt;stroke-linejoin:miter;stroke-opacity:1"
     d="m 8,22.5 h 3"
     id="path1070"
     inkscape:transform-center-x="-1.0161129"
     inkscape:transform-center-y="-1.2847622" />
  <path
     style="fill:none;stroke:#F4EFF3;stroke-width:0.999997px;stroke-linecap:butt;stroke-linejoin:miter;stroke-opacity:1"
     d="m 13,22.5 h 3"
     id="path1072"
     inkscape:transform-center-x="-1.0161129"
     inkscape:transform-center-y="-1.2847622" />
  <path
     style="fill:none;stroke:#F4EFF3;stroke-width:0.999997px;stroke-linecap:butt;stroke-linejoin:miter;stroke-opacity:1"
     d="m 18,22.5 h 3"
     id="path1074"
     inkscape:transform-center-x="-1.0161129"
     inkscape:transform-center-y="-1.2847622" />
  <path
     style="fill:none;stroke:#F4EFF3;stroke-width:0.999997px;stroke-linecap:butt;stroke-linejoin:miter;stroke-opacity:1"
     d="M 1.5,21 V 18"
     id="path1076"
     inkscape:transform-center-x="1.2847622"
     inkscape:transform-center-y="-1.0161132" />
  <path
     style="fill:none;stroke:#F4EFF3;stroke-width:0.999997px;stroke-linecap:butt;stroke-linejoin:miter;stroke-opacity:1"
     d="M 1.5,16 V 13"
     id="path1078"
     inkscape:transform-center-x="1.2847622"
     inkscape:transform-center-y="-1.0161132" />
  <path
     style="fill:none;stroke:#F4EFF3;stroke-width:0.999997px;stroke-linecap:butt;stroke-linejoin:miter;stroke-opacity:1"
     d="M 1.5,11 V 7.9999997"
     id="path1080"
     inkscape:transform-center-x="1.2847622"
     inkscape:transform-center-y="-1.0161132" />
  <path
     style="fill:none;stroke:#F4EFF3;stroke-width:0.999997px;stroke-linecap:butt;stroke-linejoin:miter;stroke-opacity:1"
     d="M 1.5,6 V 3"
     id="path1082"
     inkscape:transform-center-x="1.2847622"
     inkscape:transform-center-y="-1.0161129" />
  <path
     style="fill:none;stroke:#F4EFF3;stroke-width:0.999997px;stroke-linecap:butt;stroke-linejoin:miter;stroke-opacity:1"
     d="M 22.5,21 V 18"
     id="path1084"
     inkscape:transform-center-x="1.2847622"
     inkscape:transform-center-y="-1.0161132" />
  <path
     style="fill:none;stroke:#F4EFF3;stroke-width:0.999997px;stroke-linecap:butt;stroke-linejoin:miter;stroke-opacity:1"
     d="M 22.5,16 V 13"
     id="path1086"
     inkscape:transform-center-x="1.2847622"
     inkscape:transform-center-y="-1.0161132" />
  <path
     style="fill:none;stroke:#F4EFF3;stroke-width:0.999997px;stroke-linecap:butt;stroke-linejoin:miter;stroke-opacity:1"
     d="M 22.5,11 V 7.9999997"
     id="path1088"
     inkscape:transform-center-x="1.2847622"
     inkscape:transform-center-y="-1.0161132" />
  <path
     style="fill:none;stroke:#F4EFF3;stroke-width:0.999997px;stroke-linecap:butt;stroke-linejoin:miter;stroke-opacity:1"
     d="M 22.5,6 V 3"
     id="path1090"
     inkscape:transform-center-x="1.2847622"
     inkscape:transform-center-y="-1.0161129" />
  <sodipodi:namedview
     pagecolor="#ffffff"
     bordercolor="#666666"
     borderopacity="1"
     objecttolerance="10"
     gridtolerance="10"
     guidetolerance="10"
     inkscape:pageopacity="0"
     inkscape:pageshadow="2"
     inkscape:window-width="2560"
     inkscape:window-height="1371"
     id="namedview30"
     showgrid="true"
     inkscape:zoom="30.702139"
     inkscape:cx="2.5605781"
     inkscape:cy="11.755682"
     inkscape:window-x="0"
     inkscape:window-y="0"
     inkscape:window-maximized="1"
     inkscape:document-rotation="0"
     inkscape:current-layer="Слой_1">
    <inkscape:grid
       type="xygrid"
       id="grid_kicad"
       spacingx="0.5"
       spacingy="0.5"
       color="#9999ff"
       opacity="0.13"
       empspacing="2" />
  </sodipodi:namedview>
  <metadata
     id="metadata43">
    <rdf:RDF>
      <cc:Work
         rdf:about="">
        <cc:license
           rdf:resource="http://creativecommons.org/licenses/by-sa/4.0/" />
        <dc:format>image/svg+xml</dc:format>
        <dc:type
           rdf:resource="http://purl.org/dc/dcmitype/StillImage" />
        <dc:title>group</dc:title>
      </cc:Work>
      <cc:License
         rdf:about="http://creativecommons.org/licenses/by-sa/4.0/">
        <cc:permits
           rdf:resource="http://creativecommons.org/ns#Reproduction" />
        <cc:permits
           rdf:resource="http://creativecommons.org/ns#Distribution" />
        <cc:requires
           rdf:resource="http://creativecommons.org/ns#Notice" />
        <cc:requires
           rdf:resource="http://creativecommons.org/ns#Attribution" />
        <cc:permits
           rdf:resource="http://creativecommons.org/ns#DerivativeWorks" />
        <cc:requires
           rdf:resource="http://creativecommons.org/ns#ShareAlike" />
      </cc:License>
    </rdf:RDF>
  </metadata>
  <defs
     id="defs7">
    <style
       id="style5">.cls-1,.cls-2{fill:none;stroke:#8f8f8f;stroke-linecap:round;stroke-linejoin:round;}.cls-2{stroke-dasharray:5 5;}.cls-3{fill:#F4EFF3;}</style>
  </defs>
  <title
     id="title9">group</title>
  <path
     class="cls-4"
     d="m 21.95645,21.957771 a 7.0032,7.0032 0 1 1 0,-9.9038 7.0034,7.0034 0 0 1 0,9.9038 z"
     id="path7940"
     style="fill:#f2647e" />
  <line
     class="cls-5"
     x1="20.501522"
     y1="17.001522"
     x2="13.498478"
     y2="17.00152"
     id="line7942"
     style="fill:none;stroke:#ffffff;stroke-width:2px;stroke-linecap:round;stroke-linejoin:round;stroke-opacity:1" />
</svg>
